Library\Bee\artifacts\mvdfrm\Unity.VisualScripting.Core.ref.dll_0FD4FE2CDCC99BDF.mvfrm
Library\Bee\artifacts\mvdfrm\UnityEngine.UI.ref.dll_AFC2E85BC2EDBC0B.mvfrm
Library\Bee\artifacts\mvdfrm\UnityEngine.AccessibilityModule.dll_B80F19AD2DB1ECD4.mvfrm
Library\Bee\artifacts\mvdfrm\UnityEngine.AIModule.dll_96760295DDA3CB66.mvfrm
Library\Bee\artifacts\mvdfrm\UnityEngine.AndroidJNIModule.dll_395E12DC15724424.mvfrm
Library\Bee\artifacts\mvdfrm\UnityEngine.AnimationModule.dll_5A124C3EC061767A.mvfrm
Library\Bee\artifacts\mvdfrm\UnityEngine.ARModule.dll_4FE8C7993AC12A2F.mvfrm
Library\Bee\artifacts\mvdfrm\UnityEngine.AssetBundleModule.dll_EB3D5634223E80E8.mvfrm
Library\Bee\artifacts\mvdfrm\UnityEngine.AudioModule.dll_377923C4DCC9A8EC.mvfrm
Library\Bee\artifacts\mvdfrm\UnityEngine.ClothModule.dll_9E6180BFB6E687D0.mvfrm
Library\Bee\artifacts\mvdfrm\UnityEngine.CoreModule.dll_9375AEBF1AB39E7D.mvfrm
Library\Bee\artifacts\mvdfrm\UnityEngine.CrashReportingModule.dll_B20ABB4568A9A235.mvfrm
Library\Bee\artifacts\mvdfrm\UnityEngine.DirectorModule.dll_F78334FC30F923DA.mvfrm
Library\Bee\artifacts\mvdfrm\UnityEngine.dll_A694E705FF72E288.mvfrm
Library\Bee\artifacts\mvdfrm\UnityEngine.DSPGraphModule.dll_FCD49665A359F4FB.mvfrm
Library\Bee\artifacts\mvdfrm\UnityEngine.GameCenterModule.dll_63AB5CF6DBB33515.mvfrm
Library\Bee\artifacts\mvdfrm\UnityEngine.GIModule.dll_2EB24BA37952B380.mvfrm
Library\Bee\artifacts\mvdfrm\UnityEngine.GridModule.dll_70E6CAAD33083474.mvfrm
Library\Bee\artifacts\mvdfrm\UnityEngine.HotReloadModule.dll_DB5B0A449B9491FC.mvfrm
Library\Bee\artifacts\mvdfrm\UnityEngine.ImageConversionModule.dll_0084E3C222EFBE87.mvfrm
Library\Bee\artifacts\mvdfrm\UnityEngine.IMGUIModule.dll_6FD8C32BA2FB3CCD.mvfrm
Library\Bee\artifacts\mvdfrm\UnityEngine.InputLegacyModule.dll_7C827152BA3036D9.mvfrm
Library\Bee\artifacts\mvdfrm\UnityEngine.InputModule.dll_9DEEEB755301CD90.mvfrm
Library\Bee\artifacts\mvdfrm\UnityEngine.JSONSerializeModule.dll_1826A2E92CED4D5E.mvfrm
Library\Bee\artifacts\mvdfrm\UnityEngine.LocalizationModule.dll_2963B58CF30E50C7.mvfrm
Library\Bee\artifacts\mvdfrm\UnityEngine.ParticleSystemModule.dll_051D0491D6BB2DC3.mvfrm
Library\Bee\artifacts\mvdfrm\UnityEngine.PerformanceReportingModule.dll_3C243F62185EF03C.mvfrm
Library\Bee\artifacts\mvdfrm\UnityEngine.Physics2DModule.dll_A6B83C2F615E6E0F.mvfrm
Library\Bee\artifacts\mvdfrm\UnityEngine.PhysicsModule.dll_D4C93A0BE092E93D.mvfrm
Library\Bee\artifacts\mvdfrm\UnityEngine.ProfilerModule.dll_29C96E32CA52AAE7.mvfrm
Library\Bee\artifacts\mvdfrm\UnityEngine.RuntimeInitializeOnLoadManagerInitializerModule.dll_42BD05B2364A7CD8.mvfrm
Library\Bee\artifacts\mvdfrm\UnityEngine.ScreenCaptureModule.dll_320E506E415979C0.mvfrm
Library\Bee\artifacts\mvdfrm\UnityEngine.SharedInternalsModule.dll_849622979A1DB9D7.mvfrm
Library\Bee\artifacts\mvdfrm\UnityEngine.SpriteMaskModule.dll_4CD7CF86FD22CA8F.mvfrm
Library\Bee\artifacts\mvdfrm\UnityEngine.SpriteShapeModule.dll_049E838ED7E0B8F2.mvfrm
Library\Bee\artifacts\mvdfrm\UnityEngine.StreamingModule.dll_0EA7398F0FE92DB8.mvfrm
Library\Bee\artifacts\mvdfrm\UnityEngine.SubstanceModule.dll_EB524DD85B3C2BC6.mvfrm
Library\Bee\artifacts\mvdfrm\UnityEngine.SubsystemsModule.dll_B78535E8CB6AB2A2.mvfrm
Library\Bee\artifacts\mvdfrm\UnityEngine.TerrainModule.dll_EF0FB57AB651322B.mvfrm
Library\Bee\artifacts\mvdfrm\UnityEngine.TerrainPhysicsModule.dll_0597AD64EFFE2850.mvfrm
Library\Bee\artifacts\mvdfrm\UnityEngine.TextCoreFontEngineModule.dll_BF4F2A95035F9F5B.mvfrm
Library\Bee\artifacts\mvdfrm\UnityEngine.TextCoreTextEngineModule.dll_0737610692E35879.mvfrm
Library\Bee\artifacts\mvdfrm\UnityEngine.TextRenderingModule.dll_5B4DC278F890F9B5.mvfrm
Library\Bee\artifacts\mvdfrm\UnityEngine.TilemapModule.dll_8E0C1CFBCE0E1334.mvfrm
Library\Bee\artifacts\mvdfrm\UnityEngine.TLSModule.dll_70E1AEEE184922D1.mvfrm
Library\Bee\artifacts\mvdfrm\UnityEngine.UIElementsModule.dll_BBC39750CE96EE99.mvfrm
Library\Bee\artifacts\mvdfrm\UnityEngine.UIElementsNativeModule.dll_BCCC153B2BDAFE50.mvfrm
Library\Bee\artifacts\mvdfrm\UnityEngine.UIModule.dll_91E9A0C339EAD112.mvfrm
Library\Bee\artifacts\mvdfrm\UnityEngine.UmbraModule.dll_B24DCFDD69F0545F.mvfrm
Library\Bee\artifacts\mvdfrm\UnityEngine.UNETModule.dll_261BF6A867C293F6.mvfrm
Library\Bee\artifacts\mvdfrm\UnityEngine.UnityAnalyticsModule.dll_24BC755B82E27FBF.mvfrm
Library\Bee\artifacts\mvdfrm\UnityEngine.UnityConnectModule.dll_58D9FA33A4928BB3.mvfrm
Library\Bee\artifacts\mvdfrm\UnityEngine.UnityCurlModule.dll_8D2EED7030756867.mvfrm
Library\Bee\artifacts\mvdfrm\UnityEngine.UnityTestProtocolModule.dll_69C07EB3003EB055.mvfrm
Library\Bee\artifacts\mvdfrm\UnityEngine.UnityWebRequestAssetBundleModule.dll_5420FB5692ADD9D0.mvfrm
Library\Bee\artifacts\mvdfrm\UnityEngine.UnityWebRequestAudioModule.dll_B42093409EC9BAD4.mvfrm
Library\Bee\artifacts\mvdfrm\UnityEngine.UnityWebRequestModule.dll_1223EB6C2DE45906.mvfrm
Library\Bee\artifacts\mvdfrm\UnityEngine.UnityWebRequestTextureModule.dll_7147732F25E0B329.mvfrm
Library\Bee\artifacts\mvdfrm\UnityEngine.UnityWebRequestWWWModule.dll_D1F9A66282A314E5.mvfrm
Library\Bee\artifacts\mvdfrm\UnityEngine.VehiclesModule.dll_6F462E7BAB22F375.mvfrm
Library\Bee\artifacts\mvdfrm\UnityEngine.VFXModule.dll_F1C0475CEEB68C3E.mvfrm
Library\Bee\artifacts\mvdfrm\UnityEngine.VideoModule.dll_5C82A82F9F5BC491.mvfrm
Library\Bee\artifacts\mvdfrm\UnityEngine.VRModule.dll_E4BBC748DBA5568A.mvfrm
Library\Bee\artifacts\mvdfrm\UnityEngine.WindModule.dll_09C489E7ABEA1CE6.mvfrm
Library\Bee\artifacts\mvdfrm\UnityEngine.XRModule.dll_177A8A4D64DFA3E8.mvfrm
Library\Bee\artifacts\mvdfrm\Unity.Burst.Cecil.dll_983E79C3D85BA76E.mvfrm
Library\Bee\artifacts\mvdfrm\Unity.Burst.Cecil.Mdb.dll_3983FDCA84D6562B.mvfrm
Library\Bee\artifacts\mvdfrm\Unity.Burst.Cecil.Pdb.dll_50D6763A038B57AE.mvfrm
Library\Bee\artifacts\mvdfrm\Unity.Burst.Cecil.Rocks.dll_D12FB38294E3B98E.mvfrm
Library\Bee\artifacts\mvdfrm\Unity.Burst.Unsafe.dll_2BBDB0471305E6C5.mvfrm
Library\Bee\artifacts\mvdfrm\Unity.VisualScripting.Antlr3.Runtime.dll_276E04E9A2D5B60D.mvfrm